<svg xmlns="http://www.w3.org/2000/svg" width="29.831" height="29.831" viewBox="0 0 29.831 29.831">
  <g id="Group_1407" data-name="Group 1407" transform="translate(-1289 -1496)">
    <g id="Group_1384" data-name="Group 1384" transform="translate(1289 1496)">
      <g id="Group_1383" data-name="Group 1383">
        <g id="Ellipse_311" data-name="Ellipse 311" transform="translate(12.259 12.259)" fill="none" stroke="#5dff00" stroke-width="2">
          <circle cx="2.656" cy="2.656" r="2.656" stroke="none"/>
          <circle cx="2.656" cy="2.656" r="1.656" fill="none"/>
        </g>
        <g id="Ellipse_319" data-name="Ellipse 319" transform="translate(12.259 24.519)" fill="none" stroke="#5dff00" stroke-width="2">
          <circle cx="2.656" cy="2.656" r="2.656" stroke="none"/>
          <circle cx="2.656" cy="2.656" r="1.656" fill="none"/>
        </g>
        <g id="Ellipse_312" data-name="Ellipse 312" transform="translate(12.259)" fill="none" stroke="#5dff00" stroke-width="2">
          <circle cx="2.656" cy="2.656" r="2.656" stroke="none"/>
          <circle cx="2.656" cy="2.656" r="1.656" fill="none"/>
        </g>
        <g id="Ellipse_313" data-name="Ellipse 313" transform="translate(20.841 3.678)" fill="none" stroke="#5dff00" stroke-width="2">
          <circle cx="2.656" cy="2.656" r="2.656" stroke="none"/>
          <circle cx="2.656" cy="2.656" r="1.656" fill="none"/>
        </g>
        <g id="Ellipse_316" data-name="Ellipse 316" transform="translate(3.678 3.678)" fill="none" stroke="#5dff00" stroke-width="2">
          <circle cx="2.656" cy="2.656" r="2.656" stroke="none"/>
          <circle cx="2.656" cy="2.656" r="1.656" fill="none"/>
        </g>
        <g id="Ellipse_314" data-name="Ellipse 314" transform="translate(24.519 12.259)" fill="none" stroke="#5dff00" stroke-width="2">
          <circle cx="2.656" cy="2.656" r="2.656" stroke="none"/>
          <circle cx="2.656" cy="2.656" r="1.656" fill="none"/>
        </g>
        <g id="Ellipse_317" data-name="Ellipse 317" transform="translate(0 12.259)" fill="none" stroke="#5dff00" stroke-width="2">
          <circle cx="2.656" cy="2.656" r="2.656" stroke="none"/>
          <circle cx="2.656" cy="2.656" r="1.656" fill="none"/>
        </g>
        <g id="Ellipse_315" data-name="Ellipse 315" transform="translate(20.841 20.841)" fill="none" stroke="#5dff00" stroke-width="2">
          <circle cx="2.656" cy="2.656" r="2.656" stroke="none"/>
          <circle cx="2.656" cy="2.656" r="1.656" fill="none"/>
        </g>
        <g id="Ellipse_318" data-name="Ellipse 318" transform="translate(3.678 20.841)" fill="none" stroke="#5dff00" stroke-width="2">
          <circle cx="2.656" cy="2.656" r="2.656" stroke="none"/>
          <circle cx="2.656" cy="2.656" r="1.656" fill="none"/>
        </g>
        <line id="Line_49" data-name="Line 49" y2="7.764" transform="translate(14.916 4.699)" fill="none" stroke="#5dff00" stroke-width="2"/>
        <line id="Line_50" data-name="Line 50" x2="7.356" transform="translate(5.108 14.916)" fill="none" stroke="#5dff00" stroke-width="2"/>
        <line id="Line_51" data-name="Line 51" x2="7.356" transform="translate(17.367 14.916)" fill="none" stroke="#5dff00" stroke-width="2"/>
        <line id="Line_52" data-name="Line 52" x2="5.721" y2="5.312" transform="translate(16.141 16.55)" fill="none" stroke="#5dff00" stroke-width="2"/>
        <line id="Line_53" data-name="Line 53" x1="5.312" y2="5.312" transform="translate(7.969 16.55)" fill="none" stroke="#5dff00" stroke-width="2"/>
        <line id="Line_54" data-name="Line 54" x1="4.495" y1="2.043" transform="translate(8.377 24.314)" fill="none" stroke="#5dff00" stroke-width="2"/>
        <line id="Line_55" data-name="Line 55" y1="4.495" x2="2.043" transform="translate(24.314 17.367)" fill="none" stroke="#5dff00" stroke-width="2"/>
        <line id="Line_56" data-name="Line 56" x1="2.452" y1="4.495" transform="translate(24.314 8.377)" fill="none" stroke="#5dff00" stroke-width="2"/>
        <line id="Line_57" data-name="Line 57" x1="2.043" y2="4.086" transform="translate(3.473 8.377)" fill="none" stroke="#5dff00" stroke-width="2"/>
      </g>
    </g>
  </g>
</svg>
