<svg xmlns="http://www.w3.org/2000/svg" xmlns:xlink="http://www.w3.org/1999/xlink" width="148" height="148" viewBox="0 0 148 148">
  <defs>
    <filter id="Path_11921" x="0" y="0" width="148" height="148" filterUnits="userSpaceOnUse">
      <feOffset dy="10" input="SourceAlpha"/>
      <feGaussianBlur stdDeviation="5" result="blur"/>
      <feFlood flood-opacity="0.161"/>
      <feComposite operator="in" in2="blur"/>
      <feComposite in="SourceGraphic"/>
    </filter>
  </defs>
  <g id="Group_1547" data-name="Group 1547" transform="translate(-2768 -1968)">
    <g transform="matrix(1, 0, 0, 1, 2768, 1968)" filter="url(#Path_11921)">
      <g id="Path_11921-2" data-name="Path 11921" transform="translate(15 5)" fill="#7d6a0f">
        <path d="M 59 116.5 C 51.23688507080078 116.5 43.70678329467773 114.9799194335938 36.61886596679688 111.9819869995117 C 33.21208190917969 110.5410308837891 29.92611694335938 108.7574462890625 26.85224914550781 106.6808013916016 C 23.80719947814941 104.6235961914063 20.94373321533203 102.2610015869141 18.34136581420898 99.65863037109375 C 15.73900032043457 97.05626678466797 13.37639999389648 94.19280242919922 11.31919956207275 91.14775085449219 C 9.242549896240234 88.07388305664063 7.458966732025146 84.78791809082031 6.018016815185547 81.38113403320313 C 3.020083427429199 74.293212890625 1.5 66.76311492919922 1.5 59 C 1.5 51.23688507080078 3.020083427429199 43.70678329467773 6.018016815185547 36.61886596679688 C 7.458966732025146 33.21208190917969 9.242549896240234 29.92611694335938 11.31919956207275 26.85224914550781 C 13.37639999389648 23.80719947814941 15.73900032043457 20.94373321533203 18.34136581420898 18.34136581420898 C 20.94373321533203 15.73900032043457 23.80719947814941 13.37639999389648 26.85224914550781 11.31919956207275 C 29.92611694335938 9.242549896240234 33.21208190917969 7.458966732025146 36.61886596679688 6.018016815185547 C 43.70678329467773 3.020083427429199 51.23688507080078 1.5 59 1.5 C 66.76311492919922 1.5 74.293212890625 3.020083427429199 81.38113403320313 6.018016815185547 C 84.78791809082031 7.458966732025146 88.07388305664063 9.242549896240234 91.14775085449219 11.31919956207275 C 94.19280242919922 13.37639999389648 97.05626678466797 15.73900032043457 99.65863037109375 18.34136581420898 C 102.2610015869141 20.94373321533203 104.6235961914063 23.80719947814941 106.6808013916016 26.85224914550781 C 108.7574462890625 29.92611694335938 110.5410308837891 33.21208190917969 111.9819869995117 36.61886596679688 C 114.9799194335938 43.70678329467773 116.5 51.23688507080078 116.5 59 C 116.5 66.76311492919922 114.9799194335938 74.293212890625 111.9819869995117 81.38113403320313 C 110.5410308837891 84.78791809082031 108.7574462890625 88.07388305664063 106.6808013916016 91.14775085449219 C 104.6235961914063 94.19280242919922 102.2610015869141 97.05626678466797 99.65863037109375 99.65863037109375 C 97.05626678466797 102.2610015869141 94.19280242919922 104.6235961914063 91.14775085449219 106.6808013916016 C 88.07388305664063 108.7574462890625 84.78791809082031 110.5410308837891 81.38113403320313 111.9819869995117 C 74.293212890625 114.9799194335938 66.76311492919922 116.5 59 116.5 Z" stroke="none"/>
        <path d="M 59 3 C 51.43872833251953 3 44.10521697998047 4.480216979980469 37.20320129394531 7.399528503417969 C 33.88559722900391 8.802742004394531 30.68556213378906 10.53971099853516 27.69196319580078 12.56214904785156 C 24.72602081298828 14.56588745117188 21.93687438964844 16.86716461181641 19.40201568603516 19.40201568603516 C 16.86716461181641 21.93687438964844 14.56588745117188 24.72602081298828 12.56214904785156 27.69196319580078 C 10.53971099853516 30.68556213378906 8.802742004394531 33.88559722900391 7.399528503417969 37.20320129394531 C 4.480216979980469 44.10521697998047 3 51.43872833251953 3 59 C 3 66.56127166748047 4.480216979980469 73.89478302001953 7.399528503417969 80.79679870605469 C 8.802742004394531 84.11439514160156 10.53971099853516 87.31443786621094 12.56214904785156 90.30803680419922 C 14.56588745117188 93.27397918701172 16.86716461181641 96.06312561035156 19.40201568603516 98.59798431396484 C 21.93687438964844 101.1328353881836 24.72602081298828 103.4341125488281 27.69196319580078 105.4378509521484 C 30.68556213378906 107.4602890014648 33.88559722900391 109.1972503662109 37.20320129394531 110.600471496582 C 44.10521697998047 113.5197830200195 51.43872833251953 115 59 115 C 66.56127166748047 115 73.89478302001953 113.5197830200195 80.79679870605469 110.600471496582 C 84.11439514160156 109.1972503662109 87.31443786621094 107.4602890014648 90.30803680419922 105.4378509521484 C 93.27397918701172 103.4341125488281 96.06312561035156 101.1328353881836 98.59798431396484 98.59798431396484 C 101.1328353881836 96.06312561035156 103.4341125488281 93.27397918701172 105.4378509521484 90.30803680419922 C 107.4602890014648 87.31443786621094 109.1972503662109 84.11439514160156 110.600471496582 80.79679870605469 C 113.5197830200195 73.89478302001953 115 66.56127166748047 115 59 C 115 51.43872833251953 113.5197830200195 44.10521697998047 110.600471496582 37.20320129394531 C 109.1972503662109 33.88559722900391 107.4602890014648 30.68556213378906 105.4378509521484 27.69196319580078 C 103.4341125488281 24.72602081298828 101.1328353881836 21.93687438964844 98.59798431396484 19.40201568603516 C 96.06312561035156 16.86716461181641 93.27397918701172 14.56588745117188 90.30803680419922 12.56214904785156 C 87.31443786621094 10.53971099853516 84.11439514160156 8.802742004394531 80.79679870605469 7.399528503417969 C 73.89478302001953 4.480216979980469 66.56127166748047 3 59 3 M 59 0 C 91.58480072021484 0 118 26.41519927978516 118 59 C 118 91.58480072021484 91.58480072021484 118 59 118 C 26.41519927978516 118 0 91.58480072021484 0 59 C 0 26.41519927978516 26.41519927978516 0 59 0 Z" stroke="none" fill="#fff"/>
      </g>
    </g>
    <g id="Group_1489" data-name="Group 1489" transform="translate(1813.51 1402.651)">
      <g id="Group_1368" data-name="Group 1368" transform="translate(990.49 633.616)">
        <ellipse id="Ellipse_284" data-name="Ellipse 284" cx="5.992" cy="5.992" rx="5.992" ry="5.992" transform="translate(6.391)" fill="none" stroke="#fff" stroke-miterlimit="10" stroke-width="3"/>
        <path id="Path_11335" data-name="Path 11335" d="M999.34,770.862a12.384,12.384,0,0,0-24.767,0" transform="translate(-974.573 -742.561)" fill="none" stroke="#fff" stroke-linecap="round" stroke-linejoin="round" stroke-width="3"/>
      </g>
      <g id="Group_1369" data-name="Group 1369" transform="translate(1015.471 633.616)">
        <ellipse id="Ellipse_284-2" data-name="Ellipse 284" cx="5.992" cy="5.992" rx="5.992" ry="5.992" transform="translate(6.391)" fill="none" stroke="#fff" stroke-miterlimit="10" stroke-width="3"/>
        <path id="Path_11335-2" data-name="Path 11335" d="M999.34,770.862a12.384,12.384,0,0,0-24.767,0" transform="translate(-974.573 -742.561)" fill="none" stroke="#fff" stroke-linecap="round" stroke-linejoin="round" stroke-width="3"/>
      </g>
      <g id="Group_1370" data-name="Group 1370" transform="translate(1041.733 633.616)">
        <ellipse id="Ellipse_284-3" data-name="Ellipse 284" cx="5.992" cy="5.992" rx="5.992" ry="5.992" transform="translate(6.391)" fill="none" stroke="#fff" stroke-miterlimit="10" stroke-width="3"/>
        <path id="Path_11335-3" data-name="Path 11335" d="M999.34,770.862a12.384,12.384,0,0,0-24.767,0" transform="translate(-974.573 -742.561)" fill="none" stroke="#fff" stroke-linecap="round" stroke-linejoin="round" stroke-width="3"/>
      </g>
    </g>
    <g id="Group_1490" data-name="Group 1490" transform="translate(1817.5 1403)">
      <g id="Rectangle_178" data-name="Rectangle 178" transform="translate(1004.602 598.485)" fill="none" stroke="#fff" stroke-width="3">
        <rect width="40.296" height="24.647" rx="2" stroke="none"/>
        <rect x="1.5" y="1.5" width="37.296" height="21.647" rx="0.5" fill="none"/>
      </g>
      <g id="Path_11868" data-name="Path 11868" transform="translate(1048.028 598.876)" fill="none">
        <path d="M3.13,0,24.843,5.477a3.13,3.13,0,0,1,3.13,3.13V26.994a3.13,3.13,0,0,1-3.13,3.13L3.13,24.647A3.13,3.13,0,0,1,0,21.517V3.13A3.13,3.13,0,0,1,3.13,0Z" stroke="none"/>
        <path d="M 3.017034530639648 3.065540313720703 C 3.006195068359375 3.084489822387695 2.999996185302734 3.106418609619141 2.999996185302734 3.129772186279297 L 2.999996185302734 21.51716232299805 C 2.999996185302734 21.58871078491211 3.058206558227539 21.64692306518555 3.129766464233398 21.64692306518555 L 3.50230598449707 21.64692306518555 L 3.863536834716797 21.73804092407227 L 24.95527839660645 27.0584831237793 C 24.96611785888672 27.03953170776367 24.97231674194336 27.01760482788086 24.97231674194336 26.9942512512207 L 24.97231674194336 8.606861114501953 C 24.97231674194336 8.535301208496094 24.91410636901855 8.477090835571289 24.8425464630127 8.477090835571289 L 24.47000694274902 8.477090835571289 L 24.1087760925293 8.385971069335938 L 3.017034530639648 3.065540313720703 M 3.129766464233398 1.9073486328125e-06 L 24.8425464630127 5.477090835571289 C 26.57106590270996 5.477090835571289 27.97231674194336 6.878341674804688 27.97231674194336 8.606861114501953 L 27.97231674194336 26.9942512512207 C 27.97231674194336 28.7227725982666 26.57106590270996 30.12402153015137 24.8425464630127 30.12402153015137 L 3.129766464233398 24.64692115783691 C 1.401247024536133 24.64692115783691 -3.814697265625e-06 23.24568176269531 -3.814697265625e-06 21.51716232299805 L -3.814697265625e-06 3.129772186279297 C -3.814697265625e-06 1.401241302490234 1.401247024536133 1.9073486328125e-06 3.129766464233398 1.9073486328125e-06 Z" stroke="none" fill="#fff"/>
      </g>
      <g id="Path_11869" data-name="Path 11869" transform="translate(973.5 598.876)" fill="none">
        <path d="M24.669,0,3.108,5.477A3.119,3.119,0,0,0,0,8.607V26.994a3.119,3.119,0,0,0,3.108,3.13l21.561-5.477a3.119,3.119,0,0,0,3.108-3.13V3.13A3.119,3.119,0,0,0,24.669,0Z" stroke="none"/>
        <path d="M 24.7647819519043 3.070905685424805 L 3.846511840820313 8.384740829467773 L 3.482973098754883 8.477090835571289 L 3.107881546020508 8.477090835571289 C 3.055782318115234 8.477090835571289 3.000001907348633 8.529232025146484 3.000001907348633 8.606861114501953 L 3.000001907348633 26.9942512512207 C 3.000001907348633 27.01609039306641 3.004413604736328 27.0359058380127 3.011919021606445 27.05311584472656 L 23.93018341064453 21.73927307128906 L 24.29372215270996 21.64692306518555 L 24.6688117980957 21.64692306518555 C 24.72091293334961 21.64692306518555 24.77670288085938 21.59478187561035 24.77670288085938 21.51716232299805 L 24.77670288085938 3.129772186279297 C 24.77670288085938 3.107933044433594 24.77228927612305 3.088115692138672 24.7647819519043 3.070905685424805 M 24.6688117980957 1.9073486328125e-06 C 26.38525199890137 1.9073486328125e-06 27.77670288085938 1.401241302490234 27.77670288085938 3.129772186279297 L 27.77670288085938 21.51716232299805 C 27.77670288085938 23.24568176269531 26.38525199890137 24.64692115783691 24.6688117980957 24.64692115783691 L 3.107881546020508 30.12402153015137 C 1.391443252563477 30.12402153015137 1.9073486328125e-06 28.7227725982666 1.9073486328125e-06 26.9942512512207 L 1.9073486328125e-06 8.606861114501953 C 1.9073486328125e-06 6.878341674804688 1.391443252563477 5.477090835571289 3.107881546020508 5.477090835571289 L 24.6688117980957 1.9073486328125e-06 Z" stroke="none" fill="#fff"/>
      </g>
    </g>
  </g>
</svg>
