﻿<?xml version="1.0" encoding="utf-8"?>
<svg version="1.1" xmlns:xlink="http://www.w3.org/1999/xlink" width="2px" height="217px" xmlns="http://www.w3.org/2000/svg">
  <g transform="matrix(1 0 0 1 -243 -308 )">
    <path d="M 243.5 308  L 243.5 524  " stroke-width="1" stroke="#797979" fill="none" />
  </g>
</svg>